{
  "$schema": "https://docs.renovatebot.com/renovate-schema.json",
  "extends": [
    "config:base",
    ":disableDependencyDashboard"
  ],
  "packageRules": [
    {
      "matchDatasources": [
        "gitlab-tags"
      ],
      "versioning": "docker"
    },
    {
      "matchPackagePatterns": ["to-be-continuous/*"],
      "automerge": true,
      "automergeType": "pr",
      "platformAutomerge": true
    }
  ]
}
